…
# current verison
packageVersion("wand")
## [1] '0.6.0'
```

``` r
list.files(system.file("extdat", "pass-through", package="wand"), full.names=TRUE) %>% 
  map_df(~{
    tibble(
      fil = basename(.x),
      mime = list(get_content_type(.x))
    )
  }) %>% 
  unnest()
## # A tibble: 85 x 2
##    fil                        mime                                                             
##    <chr>                      <chr>                                                            
##  1 actions.csv                application/vnd.openxmlformats-officedocument.spreadsheetml.sheet
##  2 actions.txt                application/vnd.openxmlformats-officedocument.spreadsheetml.sheet
##  3 actions.xlsx               application/vnd.openxmlformats-officedocument.spreadsheetml.sheet
##  4 test_128_44_jstereo.mp3    audio/mp3                                                        
##  5 test_excel_2000.xls        application/msword                                               
##  6 test_excel_spreadsheet.xml application/xml                                                  
##  7 test_excel_web_archive.mht message/rfc822                                                   
##  8 test_excel.xlsm            application/zip                                                  
##  9 test_excel.xlsx            application/vnd.openxmlformats-officedocument.spreadsheetml.sheet
## 10 test_nocompress.tif        image/tiff                                                       
## # … with 75 more rows
```
…
